{"products":[
   {
      "name":"Lucas",
      "surname":"John",
      "email":"sample@sample.com",
      "title":"lorem ipsum dolor noretek imit set",
      "content":"Lorem ipsum dolor sit amet, consectetur adipiscing elit. Sed facilisis dui vel porttitor dictum. Integer bibendum, metus et viverra lacinia, tortor sem accumsan sapien, sit amet tincidunt urna ex at ligula. Sed at imperdiet ligula. Nullam eleifend ac diam eu varius. Maecenas interdum, nisi at placerat malesuada, mauris orci commodo est, pretium lacinia orci odio eu nisl. Mauris quis nisl tincidunt, cursus sapien in, mattis tellus. Praesent tellus lorem, dapibus sed pulvinar ac, vestibulum eget orci. Fusce aliquet nisl in lacus malesuada elementum. In hac habitasse platea dictumst. Suspendisse nec est placerat tellus consequat vehicula eget a nisl. Suspendisse elit orci, vestibulum eu mauris quis, accumsan ultrices sem. Nunc euismod nisi vulputate ligula congue venenatis. Integer commodo justo vestibulum nulla egestas, sit amet vulputate mauris vulputate.",
      "date":"2014-08-20 15:30:00",
      "isReaded":"true",
      "attachemnts":[
         {
            "file":"Document_2014.doc",
            "date":"2014-08-20 15:30:00"
         },
         {
            "file":"Italy street.jpg",
            "date":"2014-08-20 15:30:00"
         },
         {
            "file":"My fell.png",
            "date":"2014-08-20 15:30:00"
         }
      ]
   },
   {
      "name":"John",
      "surname":"Travolta",
      "email":"sample@sample.com",
      "title":"Aldus PageMaker including versions of Lorem ipsum",
      "content":"Lorem ipsum dolor sit amet, consectetur adipiscing elit. Sed facilisis dui vel porttitor dictum. Integer bibendum, metus et viverra lacinia, tortor sem accumsan sapien, sit amet tincidunt urna ex at ligula. Sed at imperdiet ligula. Nullam eleifend ac diam eu varius. Maecenas interdum, nisi at placerat malesuada, mauris orci commodo est, pretium lacinia orci odio eu nisl. Mauris quis nisl tincidunt, cursus sapien in, mattis tellus. Praesent tellus lorem, dapibus sed pulvinar ac, vestibulum eget orci. Fusce aliquet nisl in lacus malesuada elementum. In hac habitasse platea dictumst. Suspendisse nec est placerat tellus consequat vehicula eget a nisl. Suspendisse elit orci, vestibulum eu mauris quis, accumsan ultrices sem. Nunc euismod nisi vulputate ligula congue venenatis. Integer commodo justo vestibulum nulla egestas, sit amet vulputate mauris vulputate.",
      "date":"2014-08-20 15:30:00",
      "isReaded":"false",
      "attachemnts":[
         {
            "file":"Document_2014.doc",
            "date":"2014-08-20 15:30:00"
         },
         {
            "file":"Italy street.jpg",
            "date":"2014-08-20 15:30:00"
         },
         {
            "file":"My fell.png",
            "date":"2014-08-20 15:30:00"
         }
      ]
   }
]}
